<svg width="430" height="198" xmlns="http://www.w3.org/2000/svg">
 <!-- Generator: Sketch 41.2 (35397) - http://www.bohemiancoding.com/sketch -->
 <title>Marca Oni</title>
 <desc>Created with Sketch.</desc>

 <g>
  <title>background</title>
  <rect fill="none" id="canvas_background" height="402" width="582" y="-1" x="-1"/>
 </g>
 <g>
  <title>Layer 1</title>
  <g fill-rule="evenodd" fill="none" id="Symbols">
   <g fill="#FEFEFE" id="Marca-Oni">
    <g id="Marca">
     <path fill="#8552a1" id="Fill-1" d="m276.7402,74.3645c0,-9.136 -6.373,-14.226 -22.291,-14.226c-15.928,0 -22.303,5.09 -22.303,14.226l0,47.13c0,9.13 6.375,14.228 22.303,14.228c15.918,0 22.291,-5.098 22.291,-14.228l0,-47.13zm-64.762,-1.699c0,-17.409 12.532,-29.094 42.471,-29.094c29.932,0 42.463,11.685 42.463,29.094l0,50.522c0,17.406 -12.531,29.089 -42.463,29.089c-29.939,0 -42.471,-11.683 -42.471,-29.089l0,-50.522z"/>
     <path fill="#8552a1" id="Fill-3" d="m325.3555,45.2767c2.965,0 3.816,1.272 4.035,4.026l0.426,6.8c5.949,-5.099 17.625,-12.531 35.242,-12.531c19.742,0 29.932,11.468 29.932,27.179l0,75.579c0,2.979 -1.061,4.246 -3.813,4.246l-12.324,0c-2.754,0 -4.031,-1.267 -4.031,-4.246l0,-70.698c0,-8.703 -4.022,-14.007 -15.703,-14.007c-13.602,0 -24.209,7.215 -28.879,10.828l0,73.877c0,2.979 -1.069,4.246 -3.821,4.246l-12.306,0c-2.983,0 -4.039,-1.267 -4.039,-4.246l0,-97.027c0,-2.754 1.056,-4.026 4.039,-4.026l11.242,0z"/>
     <path fill="#8552a1" id="Fill-5" d="m429.3851,146.329c0,2.98 -1.047,4.246 -3.823,4.246l-12.308,0c-2.969,0 -4.039,-1.266 -4.039,-4.246l0,-96.808c0,-2.972 1.07,-4.244 4.039,-4.244l12.308,0c2.776,0 3.823,1.272 3.823,4.244l0,96.808zm0,-111.656c0,2.765 -1.047,4.034 -3.823,4.034l-12.308,0c-2.969,0 -4.039,-1.269 -4.039,-4.034l0,-19.094c0,-2.979 1.07,-4.248 4.039,-4.248l12.308,0c2.776,0 3.823,1.269 3.823,4.248l0,19.094z"/>
     <path fill="#8552a1" id="Fill-8" d="m97.6934,197.5394l1.498,0.015c21.785,-0.089 43.115,-7.76 60.359,-21.165l18.057,18.29c0.793,0.748 1.984,1.017 2.965,0.587c1.027,-0.441 1.703,-1.415 1.717,-2.545l-0.014,-53.827c0,-1.512 -1.223,-2.732 -2.719,-2.737l-53.166,0.005c-0.037,-0.005 -0.09,-0.005 -0.133,-0.005c-1.511,0.005 -2.722,1.225 -2.722,2.737c0,1.013 0.551,1.907 1.365,2.379l18.963,19.421c-13.111,9.528 -28.928,14.854 -45.58,14.854c-20.246,-0.118 -39.27,-8.087 -53.617,-22.443c-14.606,-14.607 -22.655,-34.089 -22.655,-54.844c0.037,-6.1 1.043,-12.073 2.52,-17.906c0,0 -9.113,0.579 -12.031,-0.787c-2.93,-1.367 -5.401,-6.35 -7.987,-9.445c-2.861,9.232 -4.449,18.886 -4.513,28.731c0,26.206 10.297,50.965 28.988,69.663c18.424,18.416 42.805,28.715 68.705,29.022"/>
     <path fill="#8552a1" id="Fill-11" d="m71.5039,61.3919c0.037,0 0.09,0 0.127,0.004c1.519,-0.004 2.73,-1.22 2.73,-2.731c0,-1.014 -0.546,-1.917 -1.363,-2.38l-18.967,-19.427c13.108,-9.541 28.932,-14.864 45.577,-14.856c20.253,0.123 39.265,8.096 53.613,22.443c14.617,14.616 22.662,34.098 22.662,54.844c-0.035,6.109 -1.045,12.073 -2.527,17.916c0,0 9.113,-0.585 12.035,0.775c2.933,1.363 5.41,6.361 7.99,9.464c2.859,-9.236 4.455,-18.898 4.518,-28.736c0,-26.209 -10.301,-50.987 -28.997,-69.673c-18.423,-18.431 -42.8,-28.723 -68.695,-29.016l-1.502,-0.019c-21.787,0.085 -43.131,7.747 -60.363,21.163l-18.059,-18.276c-0.789,-0.766 -1.984,-1.024 -2.965,-0.603c-1.027,0.443 -1.71,1.409 -1.712,2.556l0.013,53.822c-0.011,1.514 1.225,2.73 2.711,2.73l53.174,0z"/>
    </g>
   </g>
  </g>
 </g>
</svg>